5,7,9,11,13,15,17,19,23,27,31,35,39
0.06728029828863413,0.07926677033285005,0.08325330337045948,0.09350351466571959,0.09646198121961469,0.1076574398787883,0.1106217614849535,0.12090801857636493,0.13442402606464915,0.14581271610456753,0.1598696130122346,0.18171177642773648,0.19668315805404973
42,45,48,51,54,57,60,63,66,69,72,75
0.21137569629503836,0.24177842019227008,0.2799766233280798,0.3302999867752762,0.3867922006085828,0.4460265089926024,0.4986212056145696,0.5191798111897288,0.5091485394333214,0.4794028532645362,0.45077161332263843,0.4240238110794288
