# mass      medium      +sigma      +2sigma     -sigma      -2sigma
5.0 5.97785586476326 8.3942050075531 11.43414427638054 4.307376003265381 3.208469092547894 -30.44
7.0 2.4742647552490236 3.4680963960289954 4.712575756907463 1.7828446957468986 1.3280015597492456 -17.59
9.0 1.386526597291231 1.9407424136996267 2.6310849867761132 0.9990691188722848 0.7441845400258899 -12.45
11.0 0.7869123139083386 1.1005512396395207 1.4900287189185621 0.5670138316377998 0.4223560826405883 -9.662
13.0 0.4847400041297078 0.6772876282632351 0.9154605576843023 0.3492820021212101 0.26017243681848046 -7.797
15.0 0.4132024310529232 0.5769983418285847 0.7791913188993931 0.297735208645463 0.22177638206630945 -8.5
17.0 0.35418308498710394 0.49439461684972047 0.6672423637211323 0.25520849910750987 0.1900991698615253 -8.926
19.0 0.3094159100204706 0.4319506000220775 0.5830624817579985 0.22295128924325108 0.16607148768752814 -9.1876
23.0 0.3794356352090835 0.5297931897640228 0.715334655046463 0.2734043824672699 0.20365287274122237 -13.12
27.0 0.3800784431397915 0.5309410853683949 0.717416484206915 0.27386754367500543 0.20399788258597257 -15.06
31.0 0.35110459942370653 0.4907119646668434 0.6636503342539072 0.2529902834445238 0.18844686965458093 -15.35
35.0 0.49838300636038185 0.6968969206325709 0.9432621171697974 0.3591125371865928 0.2674949942622334 -22.45
39.0 0.5664227057620883 0.792735162600875 1.0745315508171915 0.4081388881802559 0.3040136368945241 -25.71
42.0 0.994021189212799 1.3863716006278992 1.868869936466217 0.7162472620606423 0.5335167720913887 -23.2
45.0 0.6849901572614908 0.9554149389266967 1.2880162185430526 0.49357328977435827 0.3676518313586712 -20.22
48.0 0.6098502527922393 0.8502304181456567 1.1453815162181855 0.4394308727234602 0.32732233945280315 -17.1
51.0 0.5332173079252244 0.7431642586365342 1.0006578966975213 0.3842125833965838 0.2861914739012718 -14.05
54.0 0.71964046318084 1.0027332774177193 1.3496222183108328 0.5185407955385745 0.3862495865486562 -17.11
57.0 0.8030531633645297 1.1189910065755249 1.5061595707386732 0.5786442395299674 0.4310193021409214 -18.03
60.0 1.0305617544054986 1.4362719729542732 1.933766959682107 0.7425767679139972 0.5531290105544031 -21.53
63.0 1.127671544253826 1.5722421729564666 2.1181514662504197 0.8125497701764107 0.605250329375267 -22.48
66.0 0.9681690759211778 1.3529316386580466 1.8290891151875257 0.6976193818449974 0.5196412817761302 -21.97
69.0 0.39594051923602824 0.5614557423070073 0.7767646563053131 0.2852970481477678 0.21251147409901025 -20.78
72.0 0.1511181552242488 0.2225553211476654 0.327322817593813 0.10888899553567172 0.08110900424420835 -19.69
75.0 0.11215961199253797 0.16764838334172963 0.2555363435298204 0.08081720892339944 0.06019895171979442 -19.13